{
  "name": "lakshyaUser",
  "base": "User",
  "idInjection": true,
  "options": {
    "validateUpsert": true
  },
  "properties": {
    "userFirstName": {
      "type": "string"
    },
    "userLastName": {
      "type": "string"
    },
    "userBirthDate": {
      "type": "string",
      "required": true
    },
    "userContact": {
      "type": "string",
      "required": true
    },
    "userContactVerified": {
      "type": "boolean",
      "default": false
    },
    "userCreatedAt": {
      "type": "date"
    },
    "userUpdatedAt": {
      "type": "date"
    },
    "otp": {
      "type": "string"
    }
  },
  "validations": [],
  "relations": {
    "accessTokens": {
      "type": "hasMany",
      "model": "AccessToken",
      "foreignKey": "userId",
      "options": {
        "disableInclude": true
      }
    },
    "countryCreatedBy": {
      "type": "hasMany",
      "model": "country",
      "foreignKey": "countryCreatedBy",
      "options": {
        "nestRemoting": true
      }
    },
    "stateCreatedBy": {
      "type": "hasMany",
      "model": "state",
      "foreignKey": "stateCreatedBy",
      "options": {
        "nestRemoting": true
      }
    },
    "stateUpdatedBy": {
      "type": "hasMany",
      "model": "state",
      "foreignKey": "stateUpdatedBy",
      "options": {
        "nestRemoting": true
      }
    },
    "zoneCreatedBy": {
      "type": "hasMany",
      "model": "zone",
      "foreignKey": "zoneCreatedBy",
      "options": {
        "nestRemoting": true
      }
    },
    "cmCreatedBy": {
      "type": "hasMany",
      "model": "clusterManager",
      "foreignKey": "cmCreatedBy",
      "options": {
        "nestRemoting": true
      }
    },
    "tlCreatedBy": {
      "type": "hasMany",
      "model": "teamLeader",
      "foreignKey": "tlCreatedBy",
      "options": {
        "nestRemoting": true
      }
    },
    
    "tlCmId": {
      "type": "hasMany",
      "model": "teamLeader",
      "foreignKey": "tlCmId",
      "options": {
        "nestRemoting": true
      }
    },
    "seId": {
      "type": "hasMany",
      "model": "salesExecutive",
      "foreignKey": "seId",
      "options": {
        "nestRemoting": true
      }
    },
    "seCreatedBy": {
      "type": "hasMany",
      "model": "salesExecutive",
      "foreignKey": "seCreatedBy",
      "options": {
        "nestRemoting": true
      }
    },
    "seTlId": {
      "type": "hasMany",
      "model": "salesExecutive",
      "foreignKey": "seTlId",
      "options": {
        "nestRemoting": true
      }
    },
    "ecId": {
      "type": "hasMany",
      "model": "externalConsultant",
      "foreignKey": "ecId",
      "options": {
        "nestRemoting": true
      }
    },
    "ecSeId": {
      "type": "hasMany",
      "model": "externalConsultant",
      "foreignKey": "ecSeId",
      "options": {
        "nestRemoting": true
      }
    },
    "ecCreatedBy": {
      "type": "hasMany",
      "model": "externalConsultant",
      "foreignKey": "ecCreatedBy",
      "options": {
        "nestRemoting": true
      }
    },
    "tlId": {
      "type": "hasMany",
      "model": "teamLeader",
      "foreignKey": "tlId",
      "options": {
        "nestRemoting": true
      }
    },
    "leadCreatedBy": {
      "type": "hasMany",
      "model": "lead",
      "foreignKey": "leadCreatedBy",
      "options": {
        "nestRemoting": true
      }
    },
    "leadStatusCreatedBy": {
      "type": "hasMany",
      "model": "leadStatus",
      "foreignKey": "leadStatusCreatedBy",
      "options": {
        "nestRemoting": true
      }
    },
    "propertyOwnerId": {
      "type": "hasMany",
      "model": "lakshyaProperty",
      "foreignKey": "propertyOwnerId",
      "options": {
        "nestRemoting": true
      }
    },
    "userCartId": {
      "type": "hasMany",
      "model": "cart",
      "foreignKey": "userId",
      "options": {
        "nestRemoting": true
      }
    },
    "changelogUserId": {
      "type": "hasMany",
      "model": "changelog",
      "foreignKey": "changelogUserId",
      "options": {
        "nestRemoting": true
      }
    },
    "changelogAssignedBy": {
      "type": "hasMany",
      "model": "changelog",
      "foreignKey": "changelogAssignedBy",
      "options": {
        "nestRemoting": true
      }
    },
    "zoneUpdatedBy": {
      "type": "hasMany",
      "model": "zone",
      "foreignKey": "zoneUpdatedBy",
      "options": {
        "nestRemoting": true
      }
    },
    "countryUpdatedBy": {
      "type": "hasMany",
      "model": "country",
      "foreignKey": "countryUpdatedBy",
      "options": {
        "nestRemoting": true
      }
    },
    "cityCreatedBy": {
      "type": "hasMany",
      "model": "city",
      "foreignKey": "cityCreatedBy",
      "options": {
        "nestRemoting": true
      }
    },
    "cityUpdatedBy": {
      "type": "hasMany",
      "model": "city",
      "foreignKey": "cityUpdatedBy",
      "options": {
        "nestRemoting": true
      }
    },
    "propertyCreatedBy": {
      "type": "hasMany",
      "model": "lakshyaProperty",
      "foreignKey": "propertyCreatedBy",
      "options": {
        "nestRemoting": true
      }
    },
    "propertyUpdatedBy": {
      "type": "hasMany",
      "model": "lakshyaProperty",
      "foreignKey": "propertyUpdatedBy",
      "options": {
        "nestRemoting": true
      }
    },
    "propertyPublishedBy": {
      "type": "hasMany",
      "model": "lakshyaProperty",
      "foreignKey": "propertyPublishedBy",
      "options": {
        "nestRemoting": true
      }
    },
    "propertyUserId": {
      "type": "hasMany",
      "model": "lakshyaProperty",
      "foreignKey": "propertyUserId",
      "options": {
        "nestRemoting": true
      }
    },
    "groups": {
      "type": "hasMany",
      "model": "group",
      "foreignKey": "userId"
    },
    "messages": {
      "type": "hasMany",
      "model": "message",
      "foreignKey": "senderId"
    },
    "admin-groups": {
      "type": "hasMany",
      "model": "admin-group",
      "foreignKey": "userId"
    }
  },
  "acls": [
    {
      "principalType": "ROLE",
      "principalId": "$everyone",
      "permission": "ALLOW"
    },
    {
      "principalType": "ROLE",
      "principalId": "$everyone",
      "permission": "ALLOW",
      "property": "create"
    },
    {
      "principalType": "ROLE",
      "principalId": "$owner",
      "permission": "ALLOW",
      "property": "deleteById"
    },
    {
      "principalType": "ROLE",
      "principalId": "$everyone",
      "permission": "ALLOW",
      "property": "login"
    },
    {
      "principalType": "ROLE",
      "principalId": "$everyone",
      "permission": "ALLOW",
      "property": "logout"
    },
    {
      "principalType": "ROLE",
      "principalId": "$owner",
      "permission": "ALLOW",
      "property": "findById"
    },
    {
      "principalType": "ROLE",
      "principalId": "$authenticated",
      "permission": "ALLOW",
      "property": "find"
    },
    {
      "principalType": "ROLE",
      "principalId": "$owner",
      "permission": "ALLOW",
      "property": "patchAttributes"
    },
    {
      "principalType": "ROLE",
      "principalId": "$owner",
      "permission": "ALLOW",
      "property": "replaceById"
    },
    {
      "accessType": "EXECUTE",
      "principalType": "ROLE",
      "principalId": "$everyone",
      "permission": "ALLOW",
      "property": "verify"
    },
    {
      "principalType": "ROLE",
      "principalId": "$everyone",
      "permission": "ALLOW",
      "property": "confirm"
    },
    {
      "accessType": "EXECUTE",
      "principalType": "ROLE",
      "principalId": "$everyone",
      "permission": "ALLOW",
      "property": "resetPassword"
    },
    {
      "accessType": "EXECUTE",
      "principalType": "ROLE",
      "principalId": "$everyone",
      "permission": "ALLOW",
      "property": "resetUserPassword"
    },
    {
      "accessType": "EXECUTE",
      "principalType": "ROLE",
      "principalId": "$authenticated",
      "permission": "ALLOW",
      "property": "changePassword"
    },
    {
      "accessType": "EXECUTE",
      "principalType": "ROLE",
      "principalId": "$authenticated",
      "permission": "ALLOW",
      "property": "setPassword"
    },
    {
      "accessType": "EXECUTE",
      "principalType": "ROLE",
      "principalId": "$authenticated",
      "permission": "ALLOW",
      "property": "count"
    },
    {
      "accessType": "EXECUTE",
      "principalType": "ROLE",
      "principalId": "$authenticated",
      "permission": "ALLOW",
      "property": "updateAll"
    },
    {
      "accessType": "EXECUTE",
      "principalType": "ROLE",
      "principalId": "$authenticated",
      "permission": "ALLOW",
      "property": "upsert"
    },
    {
      "accessType": "EXECUTE",
      "principalType": "ROLE",
      "principalId": "$authenticated",
      "permission": "ALLOW",
      "property": "updateAttributes"
    },
    {
      "accessType": "EXECUTE",
      "principalType": "ROLE",
      "principalId": "$authenticated",
      "permission": "ALLOW"
    }
  ],
  "methods": {}
}
