{
  "name": "state",
  "base": "PersistedModel",
  "idInjection": true,
  "options": {
    "validateUpsert": true
  },
  "properties": {
    "stateName": {
      "type": "string",
      "required": true
    },
    "stateCreatedAt": {
      "type": "date",
      "required": true
    },
    "stateUpdatedAt": {
      "type": "date"
    },
    "stateActiveStatus": {
      "type": "boolean"
    },
    "countryId": {
      "type": "string",
      "required": true
    },
    "stateCreatedBy": {
      "type": "string"
    },
    "stateUpdatedBy": {
      "type": "string"
    }
  },
  "validations": [],
  "relations": {
    "country": {
      "type": "belongsTo",
      "model": "country",
      "foreignKey": "countryId"
    },
    "cityStateId": {
      "type": "hasMany",
      "model": "city",
      "foreignKey": "cityStateId"
    }
  },
  "acls": [],
  "methods": {}
}
