{
  "name": "teamLeader",
  "plural": "teamLeaders",
  "base": "PersistedModel",
  "idInjection": true,
  "options": {
    "validateUpsert": true
  },
  "mixins": {
    "Autoincrementprimarykey": true
  },
  "properties": {
    "tlId": {
      "type": "string",
      "required": true,
      "unique": true
    },
    "tlCreatedBy": {
      "type": "string",
      "required": true
    },
    "tlCmId": {
      "type": "string",
      "required": true
    },
    "tlUnique": {
      "type": "number",
      "required": true,
      "uniqueid": true
    }
  },
  "validations": [],
  "relations": {
    "tlCm": {
      "type": "belongsTo",
      "model": "lakshyaUser",
      "foreignKey": "tlCmId"
    },
    "teamLeader": {
      "type": "belongsTo",
      "model": "lakshyaUser",
      "foreignKey": "tlId"
    },
    "createdBy": {
      "type": "belongsTo",
      "model": "lakshyaUser",
      "foreignKey": "tlCreatedBy"
    }
  },
  "acls": [],
  "methods": {}
}
