{
  "name": "sendMail",
  "plural": "sendmails",
  "base": "Email",
  "idInjection": true,
  "options": {
    "validateUpsert": true
  },
  "properties": {
    "to": {
      "type": "String",
      "required": true
    },
    "from": {
      "type": "String",
      "required": true
    },
    "subject": {
      "type": "String",
      "required": true
    },
    "text": {
      "type": "String"
    },
    "html": {
      "type": "String"
    }
  },
  "validations": [],
  "relations": {},
  "acls": [],
  "methods": {}
}
